<?xml version="1.0" encoding="UTF-8" standalone="no"?>
<!-- Created with Inkscape (http://www.inkscape.org/) -->

<svg
        xmlns:dc="http://purl.org/dc/elements/1.1/"
        xmlns:cc="http://creativecommons.org/ns#"
        xmlns:rdf="http://www.w3.org/1999/02/22-rdf-syntax-ns#"
        xmlns:xlink="http://www.w3.org/1999/xlink"
        xmlns:sodipodi="http://sodipodi.sourceforge.net/DTD/sodipodi-0.dtd"
        xmlns:inkscape="http://www.inkscape.org/namespaces/inkscape"
        xmlns="http://www.w3.org/2000/svg"
        sodipodi:docname="Logo Rechnungen.png"
        inkscape:version="0.48.1 r9760"
        version="1.1"
        id="svg2965"
        height="158.57143"
        width="685"
        style="enable-background:new">
    <sodipodi:namedview
            id="base"
            pagecolor="#ffffff"
            bordercolor="#666666"
            borderopacity="1.0"
            inkscape:pageopacity="0.0"
            inkscape:pageshadow="2"
            inkscape:zoom="1.4"
            inkscape:cx="210.87149"
            inkscape:cy="102.26369"
            inkscape:document-units="px"
            inkscape:current-layer="layer1"
            showgrid="false"
            inkscape:window-width="1600"
            inkscape:window-height="854"
            inkscape:window-x="-4"
            inkscape:window-y="-3"
            inkscape:window-maximized="1"
            fit-margin-top="0"
            fit-margin-left="0"
            fit-margin-right="0"
            fit-margin-bottom="0"/>
    <defs
            id="defs2967">
        <inkscape:perspective
                id="perspective2973"
                inkscape:persp3d-origin="372.04724 : 350.78739 : 1"
                inkscape:vp_z="744.09448 : 526.18109 : 1"
                inkscape:vp_y="0 : 1000 : 0"
                inkscape:vp_x="0 : 526.18109 : 1"
                sodipodi:type="inkscape:persp3d"/>
        <inkscape:perspective
                sodipodi:type="inkscape:persp3d"
                inkscape:vp_x="0 : 0.5 : 1"
                inkscape:vp_y="0 : 1000 : 0"
                inkscape:vp_z="1 : 0.5 : 1"
                inkscape:persp3d-origin="0.5 : 0.33333333 : 1"
                id="perspective2983"/>
        <linearGradient
                y2="-147.97206"
                x2="387.75485"
                y1="-310.05496"
                x1="381.89471"
                gradientTransform="matrix(0.93571428,0,0,0.97142857,96.553265,671.01127)"
                gradientUnits="userSpaceOnUse"
                id="linearGradient5325"
                xlink:href="#linearGradient3917"
                inkscape:collect="always"/>
        <linearGradient
                id="linearGradient3917">
            <stop
                    id="stop3919"
                    offset="0"
                    style="stop-color:#edf4fd;stop-opacity:0.52845526;"/>
            <stop
                    id="stop3921"
                    offset="1"
                    style="stop-color:#175bb3;stop-opacity:0;"/>
        </linearGradient>
        <inkscape:perspective
                sodipodi:type="inkscape:persp3d"
                inkscape:vp_x="0 : 0.5 : 1"
                inkscape:vp_y="0 : 1000 : 0"
                inkscape:vp_z="1 : 0.5 : 1"
                inkscape:persp3d-origin="0.5 : 0.33333333 : 1"
                id="perspective3075"/>
        <linearGradient
                y2="-147.97206"
                x2="387.75485"
                y1="-310.05496"
                x1="381.89471"
                gradientTransform="matrix(0.93571428,0,0,0.97142857,-395.59376,1094.2791)"
                gradientUnits="userSpaceOnUse"
                id="linearGradient5374"
                xlink:href="#linearGradient3917-2"
                inkscape:collect="always"/>
        <linearGradient
                id="linearGradient3917-2">
            <stop
                    id="stop3919-2"
                    offset="0"
                    style="stop-color:#edf4fd;stop-opacity:0.52845526;"/>
            <stop
                    id="stop3921-9"
                    offset="1"
                    style="stop-color:#175bb3;stop-opacity:0;"/>
        </linearGradient>
        <inkscape:perspective
                sodipodi:type="inkscape:persp3d"
                inkscape:vp_x="0 : 0.5 : 1"
                inkscape:vp_y="0 : 1000 : 0"
                inkscape:vp_z="1 : 0.5 : 1"
                inkscape:persp3d-origin="0.5 : 0.33333333 : 1"
                id="perspective3161"/>
        <linearGradient
                y2="-147.97206"
                x2="387.75485"
                y1="-310.05496"
                x1="381.89471"
                gradientTransform="matrix(0.93571428,0,0,0.97142857,387.17357,670.22793)"
                gradientUnits="userSpaceOnUse"
                id="linearGradient5377"
                xlink:href="#linearGradient3917-8"
                inkscape:collect="always"/>
        <linearGradient
                id="linearGradient3917-8">
            <stop
                    id="stop3919-1"
                    offset="0"
                    style="stop-color:#edf4fd;stop-opacity:0.52845526;"/>
            <stop
                    id="stop3921-2"
                    offset="1"
                    style="stop-color:#175bb3;stop-opacity:0;"/>
        </linearGradient>
        <inkscape:perspective
                sodipodi:type="inkscape:persp3d"
                inkscape:vp_x="0 : 0.5 : 1"
                inkscape:vp_y="0 : 1000 : 0"
                inkscape:vp_z="1 : 0.5 : 1"
                inkscape:persp3d-origin="0.5 : 0.33333333 : 1"
                id="perspective3247"/>
        <linearGradient
                id="linearGradient3917-21">
            <stop
                    id="stop3919-7"
                    offset="0"
                    style="stop-color:#edf4fd;stop-opacity:0.52845526;"/>
            <stop
                    id="stop3921-5"
                    offset="1"
                    style="stop-color:#175bb3;stop-opacity:0;"/>
        </linearGradient>
        <inkscape:perspective
                sodipodi:type="inkscape:persp3d"
                inkscape:vp_x="0 : 0.5 : 1"
                inkscape:vp_y="0 : 1000 : 0"
                inkscape:vp_z="1 : 0.5 : 1"
                inkscape:persp3d-origin="0.5 : 0.33333333 : 1"
                id="perspective3365"/>
        <linearGradient
                y2="-147.97206"
                x2="387.75485"
                y1="-310.05496"
                x1="381.89471"
                gradientTransform="matrix(0.93571428,0,0,0.97142857,689.98645,669.67217)"
                gradientUnits="userSpaceOnUse"
                id="linearGradient5482"
                xlink:href="#linearGradient3917-7"
                inkscape:collect="always"/>
        <linearGradient
                id="linearGradient3917-7">
            <stop
                    id="stop3919-6"
                    offset="0"
                    style="stop-color:#edf4fd;stop-opacity:0.52845526;"/>
            <stop
                    id="stop3921-27"
                    offset="1"
                    style="stop-color:#175bb3;stop-opacity:0;"/>
        </linearGradient>
        <inkscape:perspective
                sodipodi:type="inkscape:persp3d"
                inkscape:vp_x="0 : 0.5 : 1"
                inkscape:vp_y="0 : 1000 : 0"
                inkscape:vp_z="1 : 0.5 : 1"
                inkscape:persp3d-origin="0.5 : 0.33333333 : 1"
                id="perspective3451"/>
        <linearGradient
                y2="-147.97206"
                x2="387.75485"
                y1="-310.05496"
                x1="381.89471"
                gradientTransform="matrix(0.93571428,0,0,0.97142857,91.853206,957.71486)"
                gradientUnits="userSpaceOnUse"
                id="linearGradient5337"
                xlink:href="#linearGradient3917-1"
                inkscape:collect="always"/>
        <linearGradient
                id="linearGradient3917-1">
            <stop
                    id="stop3919-3"
                    offset="0"
                    style="stop-color:#edf4fd;stop-opacity:0.52845526;"/>
            <stop
                    id="stop3921-4"
                    offset="1"
                    style="stop-color:#175bb3;stop-opacity:0;"/>
        </linearGradient>
        <inkscape:perspective
                sodipodi:type="inkscape:persp3d"
                inkscape:vp_x="0 : 0.5 : 1"
                inkscape:vp_y="0 : 1000 : 0"
                inkscape:vp_z="1 : 0.5 : 1"
                inkscape:persp3d-origin="0.5 : 0.33333333 : 1"
                id="perspective3540"/>
        <linearGradient
                y2="-147.97206"
                x2="387.75485"
                y1="-310.05496"
                x1="381.89471"
                gradientTransform="matrix(0.93571428,0,0,0.97142857,381.86871,926.59194)"
                gradientUnits="userSpaceOnUse"
                id="linearGradient5404"
                xlink:href="#linearGradient3917-3"
                inkscape:collect="always"/>
        <linearGradient
                id="linearGradient3917-3">
            <stop
                    id="stop3919-9"
                    offset="0"
                    style="stop-color:#edf4fd;stop-opacity:0.52845526;"/>
            <stop
                    id="stop3921-0"
                    offset="1"
                    style="stop-color:#175bb3;stop-opacity:0;"/>
        </linearGradient>
        <inkscape:perspective
                sodipodi:type="inkscape:persp3d"
                inkscape:vp_x="0 : 0.5 : 1"
                inkscape:vp_y="0 : 1000 : 0"
                inkscape:vp_z="1 : 0.5 : 1"
                inkscape:persp3d-origin="0.5 : 0.33333333 : 1"
                id="perspective3632"/>
        <linearGradient
                y2="-148.13335"
                x2="387.75485"
                y1="-298.53522"
                x1="379.92142"
                gradientUnits="userSpaceOnUse"
                id="linearGradient5425"
                xlink:href="#linearGradient3952-4"
                inkscape:collect="always"/>
        <linearGradient
                id="linearGradient3952-4"
                inkscape:collect="always">
            <stop
                    id="stop3954-1"
                    offset="0"
                    style="stop-color:#0146a8;stop-opacity:1;"/>
            <stop
                    id="stop3956-0"
                    offset="1"
                    style="stop-color:#0146a8;stop-opacity:0;"/>
        </linearGradient>
        <linearGradient
                y2="-147.97206"
                x2="387.75485"
                y1="-310.05496"
                x1="381.89471"
                gradientTransform="matrix(0.93571428,0,0,0.97142857,445.01414,1241.2113)"
                gradientUnits="userSpaceOnUse"
                id="linearGradient5427"
                xlink:href="#linearGradient3917-0"
                inkscape:collect="always"/>
        <linearGradient
                id="linearGradient3917-0">
            <stop
                    id="stop3919-64"
                    offset="0"
                    style="stop-color:#edf4fd;stop-opacity:0.52845526;"/>
            <stop
                    id="stop3921-43"
                    offset="1"
                    style="stop-color:#175bb3;stop-opacity:0;"/>
        </linearGradient>
        <linearGradient
                inkscape:collect="always"
                xlink:href="#linearGradient3917-0"
                id="linearGradient3652"
                gradientUnits="userSpaceOnUse"
                gradientTransform="matrix(0.93571428,0,0,0.97142857,445.01414,1241.2113)"
                x1="381.89471"
                y1="-310.05496"
                x2="387.75485"
                y2="-147.97206"/>
        <inkscape:perspective
                sodipodi:type="inkscape:persp3d"
                inkscape:vp_x="0 : 0.5 : 1"
                inkscape:vp_y="0 : 1000 : 0"
                inkscape:vp_z="1 : 0.5 : 1"
                inkscape:persp3d-origin="0.5 : 0.33333333 : 1"
                id="perspective3724"/>
        <linearGradient
                y2="-147.97206"
                x2="387.75485"
                y1="-310.05496"
                x1="381.89471"
                gradientTransform="matrix(0.93571428,0,0,0.97142857,-184.22449,1255.6129)"
                gradientUnits="userSpaceOnUse"
                id="linearGradient5256"
                xlink:href="#linearGradient3917-07"
                inkscape:collect="always"/>
        <linearGradient
                id="linearGradient3917-07">
            <stop
                    id="stop3919-4"
                    offset="0"
                    style="stop-color:#edf4fd;stop-opacity:0.52845526;"/>
            <stop
                    id="stop3921-3"
                    offset="1"
                    style="stop-color:#175bb3;stop-opacity:0;"/>
        </linearGradient>
        <linearGradient
                y2="-148.13335"
                x2="387.75485"
                y1="-298.53522"
                x1="379.92142"
                gradientUnits="userSpaceOnUse"
                id="linearGradient5254-616"
                xlink:href="#linearGradient3952-821"
                inkscape:collect="always"
                gradientTransform="matrix(0.688325,0,0,0.57657658,61.333396,-128.36548)"/>
        <linearGradient
                id="linearGradient3952-821"
                inkscape:collect="always">
            <stop
                    id="stop3948"
                    offset="0"
                    style="stop-color:#545454;stop-opacity:1;"/>
            <stop
                    id="stop3950"
                    offset="1"
                    style="stop-color:#545454;stop-opacity:0;"/>
        </linearGradient>
        <linearGradient
                inkscape:collect="always"
                xlink:href="#linearGradient3917-07-686"
                id="linearGradient3743-987"
                gradientUnits="userSpaceOnUse"
                gradientTransform="matrix(0.64407552,0,0,0.56010296,-126.83395,1130.9149)"
                x1="381.89471"
                y1="-310.05496"
                x2="387.75485"
                y2="-147.97206"/>
        <linearGradient
                id="linearGradient3917-07-686">
            <stop
                    id="stop3955"
                    offset="0"
                    style="stop-color:#f5f5f5;stop-opacity:0.52845526;"/>
            <stop
                    id="stop3957"
                    offset="1"
                    style="stop-color:#656565;stop-opacity:0;"/>
        </linearGradient>
        <style
                id="style4084"
                type="text/css">

            .str0 {stroke:#4D4948;stroke-width:0.0123919}
            .str1 {stroke:#838281;stroke-width:0.229479;stroke-linecap:round}
            .fil2 {fill:none}
            .fil0 {fill:#4D4948}
            .fil1 {fill:white;fill-rule:nonzero}

        </style>
    </defs>
    <metadata
            id="metadata2970">
        <rdf:RDF>
            <cc:Work
                    rdf:about="">
                <dc:format>image/svg+xml</dc:format>
                <dc:type
                        rdf:resource="http://purl.org/dc/dcmitype/StillImage"/>
                <dc:title></dc:title>
            </cc:Work>
        </rdf:RDF>
    </metadata>
    <g
            transform="translate(-346.09955,-338.02737)"
            id="layer1"
            inkscape:groupmode="layer"
            inkscape:label="Layer 1">
        <rect
                style="fill:#b3b3b3;fill-opacity:1;stroke:none"
                id="rect4182"
                width="685"
                height="158.57143"
                x="346.09955"
                y="338.02737"
                ry="24.183525"
                rx="24.183523"/>
        <g
                transform="matrix(0.60048573,0,0,0.61835716,331.19462,-232.85358)"
                id="g5228">
            <path
                    transform="matrix(1,0,0,1.0126269,-209.15159,1262.8159)"
                    d="m 497.42289,-208.45078 c 0,60.56799 -49.10005,109.668042 -109.66804,109.668042 -60.56798,0 -109.66804,-49.100052 -109.66804,-109.668042 0,-60.56798 49.10006,-109.66803 109.66804,-109.66803 60.56799,0 109.66804,49.10005 109.66804,109.66803 z"
                    sodipodi:ry="109.66804"
                    sodipodi:rx="109.66804"
                    sodipodi:cy="-208.45078"
                    sodipodi:cx="387.75485"
                    id="path4227"
                    style="fill:#494949;fill-opacity:1;stroke-width:1.89999998;stroke-miterlimit:4;stroke-dasharray:none"
                    sodipodi:type="arc"/>
            <path
                    sodipodi:type="arc"
                    style="fill:url(#linearGradient5254-616);fill-opacity:1;stroke-width:1.89999998;stroke-miterlimit:4;stroke-dasharray:none"
                    id="path4229"
                    sodipodi:cx="387.75485"
                    sodipodi:cy="-208.45078"
                    sodipodi:rx="109.66804"
                    sodipodi:ry="109.66804"
                    d="m 497.42289,-208.45078 c 0,60.56799 -49.10005,109.668042 -109.66804,109.668042 -60.56798,0 -109.66804,-49.100052 -109.66804,-109.668042 0,-60.56798 49.10006,-109.66803 109.66804,-109.66803 60.56799,0 109.66804,49.10005 109.66804,109.66803 z"
                    transform="matrix(0.93571428,0,0,0.97142857,-184.22449,1255.6128)"/>
            <g
                    id="g5179">
                <path
                        inkscape:connector-curvature="0"
                        id="rect5085"
                        d="m 133.00211,983.49643 c -7.79269,0 -14.06426,6.74806 -14.06426,15.13284 l 0,57.69333 c 0,8.3848 6.27157,15.1328 14.06426,15.1328 l 89.68519,0 c 7.79269,0 14.06427,-6.748 14.06427,-15.1328 l 0,-57.69333 c 0,-8.38478 -6.27158,-15.13284 -14.06427,-15.13284 l -89.68519,0 z m 12.92522,13.26222 63.83475,0 c 7.79269,0 14.06428,6.74805 14.06428,15.13285 l 0,31.1687 c 0,8.3848 -6.27159,15.133 -14.06428,15.133 l -63.83475,0 c -7.79268,0 -14.06427,-6.7482 -14.06427,-15.133 l 0,-31.1687 c 0,-8.3848 6.27159,-15.13285 14.06427,-15.13285 z"
                        style="fill:#eeeeee;fill-opacity:1;stroke-width:1.89999998;stroke-miterlimit:4;stroke-dasharray:none"/>
                <path
                        inkscape:connector-curvature="0"
                        id="rect5167"
                        transform="translate(0,308.2677)"
                        d="m 116.34375,772.21875 c -2.77,0 -5,2.23 -5,5 l 0,26.125 c 0,2.77 2.23,5 5,5 l 122.9375,0 c 2.77,0 5,-2.23 5,-5 l 0,-26.125 c 0,-2.77 -2.23,-5 -5,-5 l -122.9375,0 z m 10.375,9 c 4.20733,0 7.59375,3.08232 7.59375,6.90625 0,3.82393 -3.38642,6.9375 -7.59375,6.9375 -4.20733,0 -7.625,-3.11357 -7.625,-6.9375 0,-3.82393 3.41767,-6.90625 7.625,-6.90625 z m 62.71875,0.53125 40.40625,0 c 2.77,0 5,2.23 5,5 l 0,1.65625 c 0,2.77 -2.23,5 -5,5 l -40.40625,0 c -2.77,0 -5,-2.23 -5,-5 l 0,-1.65625 c 0,-2.77 2.23,-5 5,-5 z"
                        style="fill:#eeeeee;fill-opacity:1;stroke-width:1.89999998;stroke-miterlimit:4;stroke-dasharray:none"/>
            </g>
            <path
                    inkscape:connector-curvature="0"
                    id="path4231"
                    d="m 178.59841,946.5686 c -56.67433,0 -102.625,47.72503 -102.625,106.5625 0,3.7524 0.1979,7.4415 0.5625,11.0938 50.06658,18.7259 126.58171,32.3687 204.6875,-10.5938 7.4e-4,-0.1669 0,-0.3329 0,-0.5 0,-58.83747 -45.95067,-106.5625 -102.625,-106.5625 z"
                    style="fill:url(#linearGradient3743-987);fill-opacity:1;stroke-width:1.89999998;stroke-miterlimit:4;stroke-dasharray:none"/>
        </g>
        <text
       xml:space="preserve"
       style="font-sizeSource:29.80897713px;font-style:normal;font-variant:normal;font-weight:900;font-stretch:normal;text-align:start;line-height:125%;letter-spacing:0px;word-spacing:0px;writing-mode:lr-tb;text-anchor:start;fill:#000000;fill-opacity:1;stroke:none;font-family:Hiruko;-inkscape-font-specification:Hiruko Heavy"
       x="622.64484"
       y="344.87204"
       id="text3067"
       sodipodi:linespacing="125%"
       transform="scale(0.88037878,1.1358747)"><tspan
         sodipodi:role="line"
         id="tspan3069"
         x="622.64484"
         y="344.87204"
         style="font-sizeSource:34.2950058px">internettechnik m.zürcher GmbH</tspan><tspan
         sodipodi:role="line"
         x="622.64484"
         y="379.70291"
         id="tspan3071"
         style="font-sizeSource:25.72125626px;font-weight:900;-inkscape-font-specification:Hiruko Heavy">Bösch 23</tspan><tspan
         sodipodi:role="line"
         x="622.64484"
         y="411.85449"
         id="tspan3073"
         style="font-sizeSource:25.72125626px;font-weight:900;-inkscape-font-specification:Hiruko Heavy">6331 Hünenberg</tspan></text>
    </g>
</svg>
